…
Furthermore, an example dataset `psc` is provided in the `kraljicMatrix` package. This data contains 200 product and service contracts (PSC).  Each PSC has an x attribute (i.e. supply risk) score from 1 (worst) to 5 (best) and y attribute (i.e. profit impact) score from 1 (worst) to 10 (best).


```r
psc
## # A tibble: 200 × 3
##      PSC x_attribute y_attribute
##    <chr>       <int>       <int>
## 1   D233        3.01        4.84
## 2   F352        4.34        5.64
## 3   T713        3.37        4.30
## 4   K833        2.67        5.53
## 5   Q121        3.48        4.33
## 6   C791        3.32        7.32
## 7   Y207        3.48        5.42
## 8   W439        2.47        3.35
## 9   N290        1.66        4.02
## 10  C251        1.00        7.47
## # ... with 190 more rows
```
…
```r
# using dplyr to add a new variable while preserving existing data
library(dplyr)

# here we are assuming we found the appropriate rho value for the y attribute using
# the same process as mentioned above
psc <- psc %>%
  mutate(x_SAVF_score = SAVF_score(x_attribute, 1, 5, .653),
         y_SAVF_score = SAVF_score(y_attribute, 1, 10, .70))

psc
## # A tibble: 200 × 5
##      PSC x_attribute y_attribute x_SAVF_score y_SAVF_score
##    <chr>       <dbl>       <dbl>        <dbl>        <dbl>
## 1   D233        3.01        4.84    0.7887459    0.9336977
## 2   F352        4.34        5.64    0.9573299    0.9629164
## 3   T713        3.37        4.30    0.8495938    0.9023958
## 4   K833        2.67        5.53    0.7165401    0.9598009
## 5   Q121        3.48        4.33    0.8655080    0.9044624
## 6   C791        3.32        7.32    0.8419735    0.9898314
## 7   Y207        3.48        5.42    0.8655080    0.9564360
## 8   W439        2.47        3.35    0.6659448    0.8084720
## 9   N290        1.66        4.02    0.3778582    0.8808636
## 10  C251        1.00        7.47    0.0000000    0.9910284
## # ... with 190 more rows
```
…
```r
kraljic_matrix(psc, x_SAVF_score, y_SAVF_score)
```

<img src="http://bradleyboehmke.github.io/figure/source/kraljicmatrix-package/2017-01-01-kraljicmatrix-package/unnamed-chunk-11-1.png" title="plot of chunk unnamed-chunk-11" alt="plot of chunk unnamed-chunk-11" style="display: block; margin: auto;" />

This illustrates that most of our PSCs fall in the "Leverage" (upper left) quadrant while a few fall in the "Strategic" (upper right) and "Non-critical" (lower left) quadrants and no PSCs fall in the "Bottleneck" quadrant.  Keep in mind that each category benefits from a different strategic sourcing approach.  So decision-makers benefit from understanding specifically which products and services align to each so that they can coordinate the appropriate sourcing strategy for that particular product or service.  We can easily do this with the `kraljic_quadrant` function.




```r
psc %>%
  mutate(quadrant = kraljic_quadrant(x_SAVF_score, y_SAVF_score))
## # A tibble: 200 × 6
##      PSC x_attribute y_attribute x_SAVF_score y_SAVF_score  quadrant
##    <chr>       <dbl>       <dbl>        <dbl>        <dbl>     <chr>
## 1   D233        3.01        4.84    0.7887459    0.9336977  Leverage
## 2   F352        4.34        5.64    0.9573299    0.9629164  Leverage
## 3   T713        3.37        4.30    0.8495938    0.9023958  Leverage
## 4   K833        2.67        5.53    0.7165401    0.9598009  Leverage
## 5   Q121        3.48        4.33    0.8655080    0.9044624  Leverage
## 6   C791        3.32        7.32    0.8419735    0.9898314  Leverage
## 7   Y207        3.48        5.42    0.8655080    0.9564360  Leverage
## 8   W439        2.47        3.35    0.6659448    0.8084720  Leverage
## 9   N290        1.66        4.02    0.3778582    0.8808636 Strategic
## 10  C251        1.00        7.47    0.0000000    0.9910284 Strategic
## # ... with 190 more rows
```

Lastly, it is important to keep in mind that decision-makers may weight the importance of each attribute differently. Consequently, due to certain market environments, decision-makers may weight the x attribute (i.e. supply risk) of greater importance than the y attribute (i.e. profit impact). Thus, we can prioritize PSCs based on this preference by applying a multi-attribute value function (MAVF) with swing weights.  Swing weight values for x and y attributes ($$w_x$$ and $$w_y$$ respectively) are typically elicited from SMEs. This allows for calculation of the interaction swing weight $$w_{xy} = 1 - w_x - w_y$$.  Thus, we can calculate the MAVF as outlined by Keeney and Raiffa (1993)[^keeney]:

$$V(x,y) = w_x v_x (x) + w_y v_y (y) + w_{xy} v_x (x) v_y (y)$$

Thus, we can apply the `MAVF_score` function to compute the multi-attribute value score based on `x` and `y` attribute utility scores and their respective swing weights. So if through discussions with decision-makers we identify swing weight values of 0.65 and 0.35 for the x and y attributes respectively, we can obtain the computed MAVF score for each PSC:


```r
psc %>%
  mutate(MAVF = MAVF_score(x_SAVF_score, y_SAVF_score, 0.65, 0.35))
## # A tibble: 200 × 6
##      PSC x_attribute y_attribute x_SAVF_score y_SAVF_score      MAVF
##    <chr>       <dbl>       <dbl>        <dbl>        <dbl>     <dbl>
## 1   D233        3.01        4.84    0.7887459    0.9336977 0.8394790
## 2   F352        4.34        5.64    0.9573299    0.9629164 0.9592852
## 3   T713        3.37        4.30    0.8495938    0.9023958 0.8680745
## 4   K833        2.67        5.53    0.7165401    0.9598009 0.8016814
## 5   Q121        3.48        4.33    0.8655080    0.9044624 0.8791420
## 6   C791        3.32        7.32    0.8419735    0.9898314 0.8937237
## 7   Y207        3.48        5.42    0.8655080    0.9564360 0.8973328
## 8   W439        2.47        3.35    0.6659448    0.8084720 0.7158293
## 9   N290        1.66        4.02    0.3778582    0.8808636 0.5539101
## 10  C251        1.00        7.47    0.0000000    0.9910284 0.3468599
## # ... with 190 more rows
```
…
And finally, since our swing weight inputs are subjective in nature we may wish to perform a senstivity analysis on these swing weights to see their impact on MAVF scores.  The `MAVF_sensitivity` function executes a sensitivity analysis by performing a Monte Carlo simulation with 1000 trials for each product or service (row). Each trial randomly selects a weight from a uniform distribution between lower and upper bound swing weight parameters and calculates the mult-attribute utility score. From these trials, summary statistics for each product or service (row) are calculated and reported for the final output.

```r
MAVF_sensitivity(psc,
                 x = x_SAVF_score,
                 y = y_SAVF_score,
                 x_wt_min = .55,
                 x_wt_max = .75,
                 y_wt_min = .25,
                 y_wt_max = .45) %>%
  select(PSC, starts_with("MAVF"))
## # A tibble: 200 × 8
##      PSC MAVF_Min MAVF_1st_Q MAVF_Median MAVF_Mean MAVF_3rd_Q
##    <chr>    <dbl>      <dbl>       <dbl>     <dbl>      <dbl>
## 1   D233   0.8152     0.8293      0.8393    0.8395     0.8490
## 2   F352   0.9519     0.9570      0.9594    0.9593     0.9614
## 3   T713   0.8469     0.8610      0.8683    0.8680     0.8746
## 4   K833   0.7722     0.7881      0.8015    0.8018     0.8151
## 5   Q121   0.8593     0.8728      0.8793    0.8791     0.8851
## 6   C791   0.8775     0.8861      0.8938    0.8938     0.9016
## 7   Y207   0.8812     0.8906      0.8972    0.8974     0.9035
## 8   W439   0.6772     0.7021      0.7163    0.7158     0.7290
## 9   N290   0.4958     0.5265      0.5539    0.5542     0.5812
## 10  C251   0.2478     0.2980      0.3461    0.3475     0.3974
## # ... with 190 more rows, and 2 more variables: MAVF_Max <dbl>,
## #   MAVF_Range <dbl>
```
…
